^G:\PROGRAMING\THINGS\C++ STUFF\SERVER_FRAMEWORK\V1\DEBUG\SOCKET.OBJ|G:\PROGRAMING\THINGS\C++ STUFF\SERVER_FRAMEWORK\V1\DEBUG\SOURCE.OBJ|G:\PROGRAMING\THINGS\C++ STUFF\SERVER_FRAMEWORK\V1\DEBUG\TCPCLIENT.OBJ|G:\PROGRAMING\THINGS\C++ STUFF\SERVER_FRAMEWORK\V1\DEBUG\TCPSERVER.OBJ|G:\PROGRAMING\THINGS\C++ STUFF\SERVER_FRAMEWORK\V1\DEBUG\TCPSOCKET.OBJ|G:\PROGRAMING\THINGS\C++ STUFF\SERVER_FRAMEWORK\V1\DEBUG\WSATHING.OBJ
C:\PROGRAM FILES (X86)\WINDOWS KITS\10\LIB\10.0.18362.0\UM\X86\KERNEL32.LIB
C:\PROGRAM FILES (X86)\WINDOWS KITS\10\LIB\10.0.18362.0\UM\X86\USER32.LIB
C:\PROGRAM FILES (X86)\WINDOWS KITS\10\LIB\10.0.18362.0\UM\X86\GDI32.LIB
C:\PROGRAM FILES (X86)\WINDOWS KITS\10\LIB\10.0.18362.0\UM\X86\WINSPOOL.LIB
C:\PROGRAM FILES (X86)\WINDOWS KITS\10\LIB\10.0.18362.0\UM\X86\COMDLG32.LIB
C:\PROGRAM FILES (X86)\WINDOWS KITS\10\LIB\10.0.18362.0\UM\X86\ADVAPI32.LIB
C:\PROGRAM FILES (X86)\WINDOWS KITS\10\LIB\10.0.18362.0\UM\X86\SHELL32.LIB
C:\PROGRAM FILES (X86)\WINDOWS KITS\10\LIB\10.0.18362.0\UM\X86\OLE32.LIB
C:\PROGRAM FILES (X86)\WINDOWS KITS\10\LIB\10.0.18362.0\UM\X86\OLEAUT32.LIB
C:\PROGRAM FILES (X86)\WINDOWS KITS\10\LIB\10.0.18362.0\UM\X86\UUID.LIB
C:\PROGRAM FILES (X86)\WINDOWS KITS\10\LIB\10.0.18362.0\UM\X86\ODBC32.LIB
C:\PROGRAM FILES (X86)\WINDOWS KITS\10\LIB\10.0.18362.0\UM\X86\ODBCCP32.LIB
G:\PROGRAMING\THINGS\C++ STUFF\SERVER_FRAMEWORK\V1\DEBUG\SOCKET.OBJ
G:\PROGRAMING\THINGS\C++ STUFF\SERVER_FRAMEWORK\V1\DEBUG\SOURCE.OBJ
G:\PROGRAMING\THINGS\C++ STUFF\SERVER_FRAMEWORK\V1\DEBUG\TCPCLIENT.OBJ
G:\PROGRAMING\THINGS\C++ STUFF\SERVER_FRAMEWORK\V1\DEBUG\TCPSERVER.OBJ
G:\PROGRAMING\THINGS\C++ STUFF\SERVER_FRAMEWORK\V1\DEBUG\TCPSOCKET.OBJ
G:\PROGRAMING\THINGS\C++ STUFF\SERVER_FRAMEWORK\V1\DEBUG\WSATHING.OBJ
C:\WINDOWS\SYSTEM32\TZRES.DLL
C:\WINDOWS\GLOBALIZATION\SORTING\SORTDEFAULT.NLS
C:\PROGRAM FILES (X86)\WINDOWS KITS\10\LIB\10.0.18362.0\UM\X86\WS2_32.LIB
C:\PROGRAM FILES (X86)\MICROSOFT VISUAL STUDIO\2019\COMMUNITY\VC\TOOLS\MSVC\14.22.27905\LIB\X86\MSVCRTD.LIB
C:\PROGRAM FILES (X86)\MICROSOFT VISUAL STUDIO\2019\COMMUNITY\VC\TOOLS\MSVC\14.22.27905\LIB\X86\OLDNAMES.LIB
C:\PROGRAM FILES (X86)\MICROSOFT VISUAL STUDIO\2019\COMMUNITY\VC\TOOLS\MSVC\14.22.27905\LIB\X86\MSVCPRTD.LIB
C:\PROGRAM FILES (X86)\MICROSOFT VISUAL STUDIO\2019\COMMUNITY\VC\TOOLS\MSVC\14.22.27905\LIB\X86\VCRUNTIMED.LIB
C:\PROGRAM FILES (X86)\WINDOWS KITS\10\LIB\10.0.18362.0\UCRT\X86\UCRTD.LIB
C:\PROGRAM FILES (X86)\MICROSOFT VISUAL STUDIO\2019\COMMUNITY\VC\TOOLS\MSVC\14.22.27905\BIN\HOSTX86\X86\MSPDBSRV.EXE
